{
  "name": "bs-highland",
  "version": "0.2.0",
  "package-specs": {
    "module": "commonjs",
    "in-source": true
  },
  "suffix": ".bs.js",
  "sources": [
    {
      "dir": "src",
      "subdirs": false
    },
    {
      "dir": "__tests__",
      "type": "dev"
    }
  ],
  "bs-dev-dependencies": [
    "@glennsl/bs-jest"
  ],
  "bs-dependencies": [
  ],
  "bsc-flags": [ "-bs-super-errors", "-bs-sort-imports" ],
  "refmt": 3
}
